\relax 
\bibstyle{alpha}
\citation{homer2009sat}
\@writefile{toc}{\contentsline {section}{\numberline {1}Introduction}{1}}
\citation{eloff2003information}
\citation{eloff2005information}
\citation{von2000information}
\citation{o2004human}
\@writefile{toc}{\contentsline {section}{\numberline {2}Background}{2}}
\newlabel{sec:background}{{2}{2}}
\@writefile{toc}{\contentsline {section}{\numberline {3}Model used}{2}}
\newlabel{sec:model-used}{{3}{2}}
\@writefile{lof}{\contentsline {figure}{\numberline {1}{\ignorespaces Model for ICS}}{2}}
\newlabel{fig:model}{{1}{2}}
\@writefile{toc}{\contentsline {subsection}{\numberline {3.1}Human aspects}{2}}
\newlabel{sec:human-aspects}{{3.1}{2}}
\@writefile{toc}{\contentsline {subsection}{\numberline {3.2}Environmental aspects}{2}}
\newlabel{sec:environment}{{3.2}{2}}
\citation{mostefaoui2006human}
\citation{mostefaoui2006human}
\citation{o2004human}
\@writefile{toc}{\contentsline {subsection}{\numberline {3.3}Computing platforms}{3}}
\newlabel{sec:systems}{{3.3}{3}}
\@writefile{toc}{\contentsline {subsection}{\numberline {3.4}Communications}{3}}
\newlabel{sec:communications}{{3.4}{3}}
\@writefile{toc}{\contentsline {subsection}{\numberline {3.5}Mathematical aspects}{3}}
\newlabel{sec:maths}{{3.5}{3}}
\@writefile{toc}{\contentsline {section}{\numberline {4}Human-Centric Network security}{3}}
\newlabel{sec:human-centr-netw}{{4}{3}}
\@writefile{toc}{\contentsline {section}{\numberline {5}DOD investigation}{3}}
\newlabel{sec:dod-investigation}{{5}{3}}
\citation{smith1998electronic}
\citation{smith1998electronic}
\citation{o2004human}
\citation{o2004human}
\citation{homer2009sat}
\citation{schneier2000secrets}
\@writefile{toc}{\contentsline {subsection}{\numberline {5.1}Validation of Model}{4}}
\newlabel{sec:appl-report-model}{{5.1}{4}}
\@writefile{toc}{\contentsline {section}{\numberline {6}SAT solving experiments}{4}}
\newlabel{sec:liter-appl-model}{{6}{4}}
\citation{homer2009sat}
\@writefile{toc}{\contentsline {section}{\numberline {7}Real life example of application}{5}}
\newlabel{sec:real-life-examples}{{7}{5}}
\@writefile{toc}{\contentsline {subsection}{\numberline {7.1}Corporate Example}{5}}
\newlabel{sec:corporate-example}{{7.1}{5}}
\@writefile{toc}{\contentsline {subsection}{\numberline {7.2}Application of model }{5}}
\newlabel{sec:appl-model-example}{{7.2}{5}}
\@writefile{toc}{\contentsline {subsubsection}{\numberline {7.2.1}Human remedies}{5}}
\newlabel{sec:human-remedies}{{7.2.1}{5}}
\bibdata{model}
\bibcite{eloff2003information}{EE03}
\bibcite{eloff2005information}{EE05}
\bibcite{homer2009sat}{HO09}
\bibcite{mostefaoui2006human}{MB06}
\bibcite{o2004human}{OP04}
\bibcite{schneier2000secrets}{Sch00}
\bibcite{smith1998electronic}{Smi98}
\bibcite{von2000information}{vS00}
\@writefile{toc}{\contentsline {subsubsection}{\numberline {7.2.2}Environmental changes}{6}}
\newlabel{sec:envir-chang}{{7.2.2}{6}}
\@writefile{toc}{\contentsline {subsubsection}{\numberline {7.2.3}System changes}{6}}
\newlabel{sec:system-changes}{{7.2.3}{6}}
\@writefile{toc}{\contentsline {section}{\numberline {8}Future work}{6}}
\newlabel{sec:future-work}{{8}{6}}
\@writefile{toc}{\contentsline {section}{\numberline {9}Summary}{6}}
\newlabel{sec:summary}{{9}{6}}
\@writefile{toc}{\contentsline {section}{\numberline {10}Conclusion}{6}}
\newlabel{sec:conclusion}{{10}{6}}
\@writefile{toc}{\contentsline {section}{\numberline {A}Biography}{6}}
