\relax 
\providecommand\hyper@newdestlabel[2]{}
\providecommand\BKM@entry[2]{}
\providecommand\HyperFirstAtBeginDocument{\AtBeginDocument}
\HyperFirstAtBeginDocument{\ifx\hyper@anchor\@undefined
\global\let\oldcontentsline\contentsline
\gdef\contentsline#1#2#3#4{\oldcontentsline{#1}{#2}{#3}}
\global\let\oldnewlabel\newlabel
\gdef\newlabel#1#2{\newlabelxx{#1}#2}
\gdef\newlabelxx#1#2#3#4#5#6{\oldnewlabel{#1}{{#2}{#3}}}
\AtEndDocument{\ifx\hyper@anchor\@undefined
\let\contentsline\oldcontentsline
\let\newlabel\oldnewlabel
\fi}
\fi}
\global\let\hyper@last\relax 
\gdef\HyperFirstAtBeginDocument#1{#1}
\providecommand\HyField@AuxAddToFields[1]{}
\providecommand\HyField@AuxAddToCoFields[2]{}
\select@language{english}
\@writefile{toc}{\select@language{english}}
\@writefile{lof}{\select@language{english}}
\@writefile{lot}{\select@language{english}}
\@writefile{nav}{\headcommand {\slideentry {0}{0}{1}{1/1}{}{0}}}
\@writefile{nav}{\headcommand {\beamer@framepages {1}{1}}}
\HyField@AuxAddToFields{80}
\HyField@AuxAddToFields{82}
\HyField@AuxAddToFields{84}
\HyField@AuxAddToFields{86}
\HyField@AuxAddToFields{88}
\HyField@AuxAddToFields{90}
\HyField@AuxAddToFields{147}
\HyField@AuxAddToFields{149}
\HyField@AuxAddToFields{151}
\HyField@AuxAddToFields{153}
\HyField@AuxAddToFields{155}
\HyField@AuxAddToFields{157}
\HyField@AuxAddToFields{204}
\HyField@AuxAddToFields{206}
\HyField@AuxAddToFields{208}
\HyField@AuxAddToFields{210}
\HyField@AuxAddToFields{212}
\HyField@AuxAddToFields{214}
\HyField@AuxAddToFields{262}
\HyField@AuxAddToFields{264}
\HyField@AuxAddToFields{266}
\HyField@AuxAddToFields{268}
\HyField@AuxAddToFields{270}
\HyField@AuxAddToFields{272}
\HyField@AuxAddToFields{319}
\HyField@AuxAddToFields{321}
\HyField@AuxAddToFields{323}
\HyField@AuxAddToFields{325}
\HyField@AuxAddToFields{327}
\HyField@AuxAddToFields{329}
\@writefile{nav}{\headcommand {\slideentry {0}{0}{2}{2/6}{}{0}}}
\@writefile{nav}{\headcommand {\beamer@framepages {2}{6}}}
\HyField@AuxAddToFields{376}
\HyField@AuxAddToFields{378}
\HyField@AuxAddToFields{380}
\HyField@AuxAddToFields{382}
\HyField@AuxAddToFields{384}
\HyField@AuxAddToFields{386}
\BKM@entry{id=1,open,dest={4F75746C696E65302E31},srcline={134}}{496E74726F64756374696F6E73}
\@writefile{toc}{\beamer@sectionintoc {1}{Introductions}{7}{0}{1}}
\@writefile{nav}{\headcommand {\sectionentry {1}{Introductions}{7}{Introductions}{0}}}
\@writefile{nav}{\headcommand {\beamer@sectionpages {1}{6}}}
\@writefile{nav}{\headcommand {\beamer@subsectionpages {1}{6}}}
\@writefile{nav}{\headcommand {\slideentry {1}{0}{1}{7/7}{}{0}}}
\@writefile{nav}{\headcommand {\beamer@framepages {7}{7}}}
\HyField@AuxAddToFields{434}
\HyField@AuxAddToFields{436}
\HyField@AuxAddToFields{438}
\HyField@AuxAddToFields{440}
\HyField@AuxAddToFields{442}
\HyField@AuxAddToFields{444}
\BKM@entry{id=2,open,dest={4F75746C696E65302E312E312E38},srcline={135}}{57686F206973207468697320636C6F776E20696E2066726F6E743F}
\@writefile{toc}{\beamer@subsectionintoc {1}{1}{Who is this clown in front?}{8}{0}{1}}
\@writefile{nav}{\headcommand {\beamer@subsectionentry {0}{1}{1}{8}{Who is this clown in front?}}\headcommand {\beamer@subsectionpages {7}{7}}}
\@writefile{nav}{\headcommand {\slideentry {1}{1}{1}{8/8}{Who is this clown in front?}{0}}}
\@writefile{nav}{\headcommand {\beamer@framepages {8}{8}}}
\HyField@AuxAddToFields{496}
\HyField@AuxAddToFields{498}
\HyField@AuxAddToFields{500}
\HyField@AuxAddToFields{502}
\HyField@AuxAddToFields{504}
\HyField@AuxAddToFields{506}
\BKM@entry{id=3,open,dest={4F75746C696E65302E312E322E39},srcline={152}}{2E2E20616E64207768617420646F65732069742062656C696576653F}
\@writefile{toc}{\beamer@subsectionintoc {1}{2}{.. and what does it believe?}{9}{0}{1}}
\@writefile{nav}{\headcommand {\beamer@subsectionentry {0}{1}{2}{9}{.. and what does it believe?}}\headcommand {\beamer@subsectionpages {8}{8}}}
\HyField@AuxAddToFields{553}
\HyField@AuxAddToFields{555}
\HyField@AuxAddToFields{557}
\HyField@AuxAddToFields{559}
\HyField@AuxAddToFields{561}
\HyField@AuxAddToFields{563}
\HyField@AuxAddToFields{612}
\HyField@AuxAddToFields{614}
\HyField@AuxAddToFields{616}
\HyField@AuxAddToFields{618}
\HyField@AuxAddToFields{620}
\HyField@AuxAddToFields{622}
\HyField@AuxAddToFields{668}
\HyField@AuxAddToFields{670}
\HyField@AuxAddToFields{672}
\HyField@AuxAddToFields{674}
\HyField@AuxAddToFields{676}
\HyField@AuxAddToFields{678}
\@writefile{nav}{\headcommand {\slideentry {1}{2}{1}{9/12}{.. and what does it believe?}{0}}}
\@writefile{nav}{\headcommand {\beamer@framepages {9}{12}}}
\HyField@AuxAddToFields{722}
\HyField@AuxAddToFields{724}
\HyField@AuxAddToFields{726}
\HyField@AuxAddToFields{728}
\HyField@AuxAddToFields{730}
\HyField@AuxAddToFields{732}
\HyField@AuxAddToFields{776}
\HyField@AuxAddToFields{778}
\HyField@AuxAddToFields{780}
\HyField@AuxAddToFields{782}
\HyField@AuxAddToFields{784}
\HyField@AuxAddToFields{786}
\@writefile{nav}{\headcommand {\slideentry {1}{2}{2}{13/14}{.. and what does it believe?}{0}}}
\@writefile{nav}{\headcommand {\beamer@framepages {13}{14}}}
\HyField@AuxAddToFields{832}
\HyField@AuxAddToFields{834}
\HyField@AuxAddToFields{836}
\HyField@AuxAddToFields{838}
\HyField@AuxAddToFields{840}
\HyField@AuxAddToFields{842}
\BKM@entry{id=4,open,dest={4F75746C696E65302E312E332E3135},srcline={172}}{5768617420656D6F74696F6E733F}
\@writefile{toc}{\beamer@subsectionintoc {1}{3}{What emotions?}{15}{0}{1}}
\@writefile{nav}{\headcommand {\beamer@subsectionentry {0}{1}{3}{15}{What emotions?}}\headcommand {\beamer@subsectionpages {9}{14}}}
\HyField@AuxAddToFields{886}
\HyField@AuxAddToFields{888}
\HyField@AuxAddToFields{890}
\HyField@AuxAddToFields{892}
\HyField@AuxAddToFields{894}
\HyField@AuxAddToFields{896}
\@writefile{nav}{\headcommand {\slideentry {1}{3}{1}{15/16}{What emotions?}{0}}}
\@writefile{nav}{\headcommand {\beamer@framepages {15}{16}}}
\HyField@AuxAddToFields{945}
\HyField@AuxAddToFields{947}
\HyField@AuxAddToFields{949}
\HyField@AuxAddToFields{951}
\HyField@AuxAddToFields{953}
\HyField@AuxAddToFields{955}
\HyField@AuxAddToFields{999}
\HyField@AuxAddToFields{1001}
\HyField@AuxAddToFields{1003}
\HyField@AuxAddToFields{1005}
\HyField@AuxAddToFields{1007}
\HyField@AuxAddToFields{1009}
\HyField@AuxAddToFields{1055}
\HyField@AuxAddToFields{1057}
\HyField@AuxAddToFields{1059}
\HyField@AuxAddToFields{1061}
\HyField@AuxAddToFields{1063}
\HyField@AuxAddToFields{1065}
\HyField@AuxAddToFields{1111}
\HyField@AuxAddToFields{1113}
\HyField@AuxAddToFields{1115}
\HyField@AuxAddToFields{1117}
\HyField@AuxAddToFields{1119}
\HyField@AuxAddToFields{1121}
\HyField@AuxAddToFields{1167}
\HyField@AuxAddToFields{1169}
\HyField@AuxAddToFields{1171}
\HyField@AuxAddToFields{1173}
\HyField@AuxAddToFields{1175}
\HyField@AuxAddToFields{1177}
\HyField@AuxAddToFields{1223}
\HyField@AuxAddToFields{1225}
\HyField@AuxAddToFields{1227}
\HyField@AuxAddToFields{1229}
\HyField@AuxAddToFields{1231}
\HyField@AuxAddToFields{1233}
\HyField@AuxAddToFields{1278}
\HyField@AuxAddToFields{1280}
\HyField@AuxAddToFields{1282}
\HyField@AuxAddToFields{1284}
\HyField@AuxAddToFields{1286}
\HyField@AuxAddToFields{1288}
\HyField@AuxAddToFields{1333}
\HyField@AuxAddToFields{1335}
\HyField@AuxAddToFields{1337}
\HyField@AuxAddToFields{1339}
\HyField@AuxAddToFields{1341}
\HyField@AuxAddToFields{1343}
\@writefile{nav}{\headcommand {\slideentry {1}{3}{2}{17/24}{What emotions?}{0}}}
\@writefile{nav}{\headcommand {\beamer@framepages {17}{24}}}
\HyField@AuxAddToFields{1388}
\HyField@AuxAddToFields{1390}
\HyField@AuxAddToFields{1392}
\HyField@AuxAddToFields{1394}
\HyField@AuxAddToFields{1396}
\HyField@AuxAddToFields{1398}
\BKM@entry{id=5,open,dest={4F75746C696E65302E32},srcline={205}}{4261636B20746F2074686520393073}
\@writefile{toc}{\beamer@sectionintoc {2}{Back to the 90s}{25}{0}{2}}
\@writefile{nav}{\headcommand {\sectionentry {2}{Back to the 90s}{25}{Back to the 90s}{0}}}
\@writefile{nav}{\headcommand {\beamer@sectionpages {7}{24}}}
\@writefile{nav}{\headcommand {\beamer@subsectionpages {15}{24}}}
\@writefile{nav}{\headcommand {\slideentry {2}{0}{1}{25/25}{}{0}}}
\@writefile{nav}{\headcommand {\beamer@framepages {25}{25}}}
\HyField@AuxAddToFields{1450}
\HyField@AuxAddToFields{1452}
\HyField@AuxAddToFields{1454}
\HyField@AuxAddToFields{1456}
\HyField@AuxAddToFields{1458}
\HyField@AuxAddToFields{1460}
\@writefile{nav}{\headcommand {\slideentry {2}{0}{2}{26/26}{}{0}}}
\@writefile{nav}{\headcommand {\beamer@framepages {26}{26}}}
\HyField@AuxAddToFields{1516}
\HyField@AuxAddToFields{1518}
\HyField@AuxAddToFields{1520}
\HyField@AuxAddToFields{1522}
\HyField@AuxAddToFields{1524}
\HyField@AuxAddToFields{1526}
\BKM@entry{id=6,open,dest={4F75746C696E65302E322E312E3237},srcline={207}}{436F6D696E672066726F6D2074686520383073}
\@writefile{toc}{\beamer@subsectionintoc {2}{1}{Coming from the 80s}{27}{0}{2}}
\@writefile{nav}{\headcommand {\beamer@subsectionentry {0}{2}{1}{27}{Coming from the 80s}}\headcommand {\beamer@subsectionpages {25}{26}}}
\HyField@AuxAddToFields{1574}
\HyField@AuxAddToFields{1576}
\HyField@AuxAddToFields{1578}
\HyField@AuxAddToFields{1580}
\HyField@AuxAddToFields{1582}
\HyField@AuxAddToFields{1584}
\@writefile{nav}{\headcommand {\slideentry {2}{1}{1}{27/28}{Coming from the 80s}{0}}}
\@writefile{nav}{\headcommand {\beamer@framepages {27}{28}}}
\HyField@AuxAddToFields{1634}
\HyField@AuxAddToFields{1636}
\HyField@AuxAddToFields{1638}
\HyField@AuxAddToFields{1640}
\HyField@AuxAddToFields{1642}
\HyField@AuxAddToFields{1644}
\BKM@entry{id=7,open,dest={4F75746C696E65302E322E322E3239},srcline={221}}{496E7465726E6574202121}
\@writefile{toc}{\beamer@subsectionintoc {2}{2}{Internet !!}{29}{0}{2}}
\@writefile{nav}{\headcommand {\beamer@subsectionentry {0}{2}{2}{29}{Internet !!}}\headcommand {\beamer@subsectionpages {27}{28}}}
\@writefile{nav}{\headcommand {\slideentry {2}{2}{1}{29/29}{Internet !!}{0}}}
\@writefile{nav}{\headcommand {\beamer@framepages {29}{29}}}
\HyField@AuxAddToFields{1693}
\HyField@AuxAddToFields{1695}
\HyField@AuxAddToFields{1697}
\HyField@AuxAddToFields{1699}
\HyField@AuxAddToFields{1701}
\HyField@AuxAddToFields{1703}
\@writefile{nav}{\headcommand {\slideentry {2}{2}{2}{30/30}{Internet !!}{0}}}
\@writefile{nav}{\headcommand {\beamer@framepages {30}{30}}}
\HyField@AuxAddToFields{1753}
\HyField@AuxAddToFields{1755}
\HyField@AuxAddToFields{1757}
\HyField@AuxAddToFields{1759}
\HyField@AuxAddToFields{1761}
\HyField@AuxAddToFields{1763}
\BKM@entry{id=8,open,dest={4F75746C696E65302E322E332E3331},srcline={233}}{4E534120696E2074686520393073}
\@writefile{toc}{\beamer@subsectionintoc {2}{3}{NSA in the 90s}{31}{0}{2}}
\@writefile{nav}{\headcommand {\beamer@subsectionentry {0}{2}{3}{31}{NSA in the 90s}}\headcommand {\beamer@subsectionpages {29}{30}}}
\@writefile{nav}{\headcommand {\slideentry {2}{3}{1}{31/31}{NSA in the 90s}{0}}}
\@writefile{nav}{\headcommand {\beamer@framepages {31}{31}}}
\HyField@AuxAddToFields{1812}
\HyField@AuxAddToFields{1814}
\HyField@AuxAddToFields{1816}
\HyField@AuxAddToFields{1818}
\HyField@AuxAddToFields{1820}
\HyField@AuxAddToFields{1822}
\BKM@entry{id=9,open,dest={4F75746C696E65302E322E342E3332},srcline={240}}{5047502C204456442D4353532C206578706F727420677261646520616E64206672656520737065656368}
\@writefile{toc}{\beamer@subsectionintoc {2}{4}{PGP, DVD-CSS, export grade and free speech}{32}{0}{2}}
\@writefile{nav}{\headcommand {\beamer@subsectionentry {0}{2}{4}{32}{PGP, DVD-CSS, export grade and free speech}}\headcommand {\beamer@subsectionpages {31}{31}}}
\@writefile{nav}{\headcommand {\slideentry {2}{4}{1}{32/32}{PGP, DVD-CSS, export grade and free speech}{0}}}
\@writefile{nav}{\headcommand {\beamer@framepages {32}{32}}}
\HyField@AuxAddToFields{1872}
\HyField@AuxAddToFields{1874}
\HyField@AuxAddToFields{1876}
\HyField@AuxAddToFields{1878}
\HyField@AuxAddToFields{1880}
\HyField@AuxAddToFields{1882}
\BKM@entry{id=10,open,dest={4F75746C696E65302E322E352E3333},srcline={244}}{532E4B2E492E502E20616E64204950536563277320494B45207374617274}
\@writefile{toc}{\beamer@subsectionintoc {2}{5}{S.K.I.P. and IPSec's IKE start}{33}{0}{2}}
\@writefile{nav}{\headcommand {\beamer@subsectionentry {0}{2}{5}{33}{S.K.I.P. and IPSec's IKE start}}\headcommand {\beamer@subsectionpages {32}{32}}}
\@writefile{nav}{\headcommand {\slideentry {2}{5}{1}{33/33}{S.K.I.P. and IPSec's IKE start}{0}}}
\@writefile{nav}{\headcommand {\beamer@framepages {33}{33}}}
\HyField@AuxAddToFields{1932}
\HyField@AuxAddToFields{1934}
\HyField@AuxAddToFields{1936}
\HyField@AuxAddToFields{1938}
\HyField@AuxAddToFields{1940}
\HyField@AuxAddToFields{1942}
\BKM@entry{id=11,open,dest={4F75746C696E65302E33},srcline={247}}{5365637572697479206D6F64656C20686973746F7279}
\@writefile{toc}{\beamer@sectionintoc {3}{Security model history}{34}{0}{3}}
\@writefile{nav}{\headcommand {\sectionentry {3}{Security model history}{34}{Security model history}{0}}}
\@writefile{nav}{\headcommand {\beamer@sectionpages {25}{33}}}
\@writefile{nav}{\headcommand {\beamer@subsectionpages {33}{33}}}
\@writefile{nav}{\headcommand {\slideentry {3}{0}{1}{34/34}{}{0}}}
\@writefile{nav}{\headcommand {\beamer@framepages {34}{34}}}
\HyField@AuxAddToFields{1991}
\HyField@AuxAddToFields{1993}
\HyField@AuxAddToFields{1995}
\HyField@AuxAddToFields{1997}
\HyField@AuxAddToFields{1999}
\HyField@AuxAddToFields{2001}
\BKM@entry{id=12,open,dest={4F75746C696E65302E332E312E3335},srcline={248}}{422E422E492E20616E6420636F72706F726174696F6E73}
\@writefile{toc}{\beamer@subsectionintoc {3}{1}{B.B.I. and corporations}{35}{0}{3}}
\@writefile{nav}{\headcommand {\beamer@subsectionentry {0}{3}{1}{35}{B.B.I. and corporations}}\headcommand {\beamer@subsectionpages {34}{34}}}
\@writefile{nav}{\headcommand {\slideentry {3}{1}{1}{35/35}{B.B.I. and corporations}{0}}}
\@writefile{nav}{\headcommand {\beamer@framepages {35}{35}}}
\HyField@AuxAddToFields{2051}
\HyField@AuxAddToFields{2053}
\HyField@AuxAddToFields{2055}
\HyField@AuxAddToFields{2057}
\HyField@AuxAddToFields{2059}
\HyField@AuxAddToFields{2061}
\@writefile{nav}{\headcommand {\slideentry {3}{1}{2}{36/36}{B.B.I. and corporations}{0}}}
\@writefile{nav}{\headcommand {\beamer@framepages {36}{36}}}
\HyField@AuxAddToFields{2110}
\HyField@AuxAddToFields{2112}
\HyField@AuxAddToFields{2114}
\HyField@AuxAddToFields{2116}
\HyField@AuxAddToFields{2118}
\HyField@AuxAddToFields{2120}
\BKM@entry{id=13,open,dest={4F75746C696E65302E332E322E3337},srcline={262}}{4A75737420536C6170206F6E20612043727970746F2056504E}
\@writefile{toc}{\beamer@subsectionintoc {3}{2}{Just Slap on a Crypto VPN}{37}{0}{3}}
\@writefile{nav}{\headcommand {\beamer@subsectionentry {0}{3}{2}{37}{Just Slap on a Crypto VPN}}\headcommand {\beamer@subsectionpages {35}{36}}}
\HyField@AuxAddToFields{2166}
\HyField@AuxAddToFields{2168}
\HyField@AuxAddToFields{2170}
\HyField@AuxAddToFields{2172}
\HyField@AuxAddToFields{2174}
\HyField@AuxAddToFields{2176}
\@writefile{nav}{\headcommand {\slideentry {3}{2}{1}{37/38}{Just Slap on a Crypto VPN}{0}}}
\@writefile{nav}{\headcommand {\beamer@framepages {37}{38}}}
\HyField@AuxAddToFields{2226}
\HyField@AuxAddToFields{2228}
\HyField@AuxAddToFields{2230}
\HyField@AuxAddToFields{2232}
\HyField@AuxAddToFields{2234}
\HyField@AuxAddToFields{2236}
\BKM@entry{id=14,open,dest={4F75746C696E65302E332E332E3339},srcline={270}}{4C657427732074727920616E6420626520707261676D61746963206669727374}
\@writefile{toc}{\beamer@subsectionintoc {3}{3}{Let's try and be pragmatic first}{39}{0}{3}}
\@writefile{nav}{\headcommand {\beamer@subsectionentry {0}{3}{3}{39}{Let's try and be pragmatic first}}\headcommand {\beamer@subsectionpages {37}{38}}}
\@writefile{nav}{\headcommand {\slideentry {3}{3}{1}{39/39}{Let's try and be pragmatic first}{0}}}
\@writefile{nav}{\headcommand {\beamer@framepages {39}{39}}}
\HyField@AuxAddToFields{2283}
\HyField@AuxAddToFields{2285}
\HyField@AuxAddToFields{2287}
\HyField@AuxAddToFields{2289}
\HyField@AuxAddToFields{2291}
\HyField@AuxAddToFields{2293}
\BKM@entry{id=15,open,dest={4F75746C696E65302E34},srcline={278}}{416E6420746F6461793F}
\@writefile{toc}{\beamer@sectionintoc {4}{And today?}{40}{0}{4}}
\@writefile{nav}{\headcommand {\sectionentry {4}{And today?}{40}{And today?}{0}}}
\@writefile{nav}{\headcommand {\beamer@sectionpages {34}{39}}}
\@writefile{nav}{\headcommand {\beamer@subsectionpages {39}{39}}}
\@writefile{nav}{\headcommand {\slideentry {4}{0}{1}{40/40}{}{0}}}
\@writefile{nav}{\headcommand {\beamer@framepages {40}{40}}}
\HyField@AuxAddToFields{2352}
\HyField@AuxAddToFields{2354}
\HyField@AuxAddToFields{2356}
\HyField@AuxAddToFields{2358}
\HyField@AuxAddToFields{2360}
\HyField@AuxAddToFields{2362}
\BKM@entry{id=16,open,dest={4F75746C696E65302E342E312E3431},srcline={279}}{392F3131}
\@writefile{toc}{\beamer@subsectionintoc {4}{1}{9/11}{41}{0}{4}}
\@writefile{nav}{\headcommand {\beamer@subsectionentry {0}{4}{1}{41}{9/11}}\headcommand {\beamer@subsectionpages {40}{40}}}
\@writefile{nav}{\headcommand {\slideentry {4}{1}{1}{41/41}{9/11}{0}}}
\@writefile{nav}{\headcommand {\beamer@framepages {41}{41}}}
\HyField@AuxAddToFields{2411}
\HyField@AuxAddToFields{2413}
\HyField@AuxAddToFields{2415}
\HyField@AuxAddToFields{2417}
\HyField@AuxAddToFields{2419}
\HyField@AuxAddToFields{2421}
\BKM@entry{id=17,open,dest={4F75746C696E65302E342E322E3432},srcline={281}}{4E5341202D20536E6F7764656E206C65616B73}
\@writefile{toc}{\beamer@subsectionintoc {4}{2}{NSA - Snowden leaks}{42}{0}{4}}
\@writefile{nav}{\headcommand {\beamer@subsectionentry {0}{4}{2}{42}{NSA - Snowden leaks}}\headcommand {\beamer@subsectionpages {41}{41}}}
\HyField@AuxAddToFields{2467}
\HyField@AuxAddToFields{2469}
\HyField@AuxAddToFields{2471}
\HyField@AuxAddToFields{2473}
\HyField@AuxAddToFields{2475}
\HyField@AuxAddToFields{2477}
\@writefile{nav}{\headcommand {\slideentry {4}{2}{1}{42/43}{NSA - Snowden leaks}{0}}}
\@writefile{nav}{\headcommand {\beamer@framepages {42}{43}}}
\HyField@AuxAddToFields{2524}
\HyField@AuxAddToFields{2526}
\HyField@AuxAddToFields{2528}
\HyField@AuxAddToFields{2530}
\HyField@AuxAddToFields{2532}
\HyField@AuxAddToFields{2534}
\BKM@entry{id=18,open,dest={4F75746C696E65302E342E332E3434},srcline={287}}{524943412F46494341202D207265636F7264696E6773}
\@writefile{toc}{\beamer@subsectionintoc {4}{3}{RICA/FICA - recordings}{44}{0}{4}}
\@writefile{nav}{\headcommand {\beamer@subsectionentry {0}{4}{3}{44}{RICA/FICA - recordings}}\headcommand {\beamer@subsectionpages {42}{43}}}
\HyField@AuxAddToFields{2580}
\HyField@AuxAddToFields{2582}
\HyField@AuxAddToFields{2584}
\HyField@AuxAddToFields{2586}
\HyField@AuxAddToFields{2588}
\HyField@AuxAddToFields{2590}
\HyField@AuxAddToFields{2638}
\HyField@AuxAddToFields{2640}
\HyField@AuxAddToFields{2642}
\HyField@AuxAddToFields{2644}
\HyField@AuxAddToFields{2646}
\HyField@AuxAddToFields{2648}
\@writefile{nav}{\headcommand {\slideentry {4}{3}{1}{44/46}{RICA/FICA - recordings}{0}}}
\@writefile{nav}{\headcommand {\beamer@framepages {44}{46}}}
\HyField@AuxAddToFields{2694}
\HyField@AuxAddToFields{2696}
\HyField@AuxAddToFields{2698}
\HyField@AuxAddToFields{2700}
\HyField@AuxAddToFields{2702}
\HyField@AuxAddToFields{2704}
\BKM@entry{id=19,open,dest={4F75746C696E65302E342E342E3437},srcline={295}}{507269766163792C205768617420707269766163793F}
\@writefile{toc}{\beamer@subsectionintoc {4}{4}{Privacy, What privacy?}{47}{0}{4}}
\@writefile{nav}{\headcommand {\beamer@subsectionentry {0}{4}{4}{47}{Privacy, What privacy?}}\headcommand {\beamer@subsectionpages {44}{46}}}
\@writefile{nav}{\headcommand {\slideentry {4}{4}{1}{47/47}{Privacy, What privacy?}{0}}}
\@writefile{nav}{\headcommand {\beamer@framepages {47}{47}}}
\HyField@AuxAddToFields{2749}
\HyField@AuxAddToFields{2751}
\HyField@AuxAddToFields{2753}
\HyField@AuxAddToFields{2755}
\HyField@AuxAddToFields{2757}
\HyField@AuxAddToFields{2759}
\BKM@entry{id=20,open,dest={4F75746C696E65302E35},srcline={303}}{5363656E6172696F73}
\@writefile{toc}{\beamer@sectionintoc {5}{Scenarios}{48}{0}{5}}
\@writefile{nav}{\headcommand {\sectionentry {5}{Scenarios}{48}{Scenarios}{0}}}
\@writefile{nav}{\headcommand {\beamer@sectionpages {40}{47}}}
\@writefile{nav}{\headcommand {\beamer@subsectionpages {47}{47}}}
\@writefile{nav}{\headcommand {\slideentry {5}{0}{1}{48/48}{}{0}}}
\@writefile{nav}{\headcommand {\beamer@framepages {48}{48}}}
\HyField@AuxAddToFields{2806}
\HyField@AuxAddToFields{2808}
\HyField@AuxAddToFields{2810}
\HyField@AuxAddToFields{2812}
\HyField@AuxAddToFields{2814}
\HyField@AuxAddToFields{2816}
\BKM@entry{id=21,open,dest={4F75746C696E65302E352E312E3439},srcline={304}}{4C616E64206F66204B6E6F77616C69616E}
\@writefile{toc}{\beamer@subsectionintoc {5}{1}{Land of Knowalian}{49}{0}{5}}
\@writefile{nav}{\headcommand {\beamer@subsectionentry {0}{5}{1}{49}{Land of Knowalian}}\headcommand {\beamer@subsectionpages {48}{48}}}
\@writefile{nav}{\headcommand {\slideentry {5}{1}{1}{49/49}{Land of Knowalian}{0}}}
\@writefile{nav}{\headcommand {\beamer@framepages {49}{49}}}
\HyField@AuxAddToFields{2860}
\HyField@AuxAddToFields{2862}
\HyField@AuxAddToFields{2864}
\HyField@AuxAddToFields{2866}
\HyField@AuxAddToFields{2868}
\HyField@AuxAddToFields{2870}
\@writefile{nav}{\headcommand {\slideentry {5}{1}{2}{50/50}{Land of Knowalian}{0}}}
\@writefile{nav}{\headcommand {\beamer@framepages {50}{50}}}
\HyField@AuxAddToFields{2916}
\HyField@AuxAddToFields{2918}
\HyField@AuxAddToFields{2920}
\HyField@AuxAddToFields{2922}
\HyField@AuxAddToFields{2924}
\HyField@AuxAddToFields{2926}
\HyField@AuxAddToFields{2975}
\HyField@AuxAddToFields{2977}
\HyField@AuxAddToFields{2979}
\HyField@AuxAddToFields{2981}
\HyField@AuxAddToFields{2983}
\HyField@AuxAddToFields{2985}
\@writefile{nav}{\headcommand {\slideentry {5}{1}{3}{51/52}{Land of Knowalian}{0}}}
\@writefile{nav}{\headcommand {\beamer@framepages {51}{52}}}
\HyField@AuxAddToFields{3030}
\HyField@AuxAddToFields{3032}
\HyField@AuxAddToFields{3034}
\HyField@AuxAddToFields{3036}
\HyField@AuxAddToFields{3038}
\HyField@AuxAddToFields{3040}
\BKM@entry{id=22,open,dest={4F75746C696E65302E352E322E3533},srcline={336}}{46696C65207472616E736665725C28735C29}
\@writefile{toc}{\beamer@subsectionintoc {5}{2}{File transfer(s)}{53}{0}{5}}
\@writefile{nav}{\headcommand {\beamer@subsectionentry {0}{5}{2}{53}{File transfer(s)}}\headcommand {\beamer@subsectionpages {49}{52}}}
\@writefile{nav}{\headcommand {\slideentry {5}{2}{1}{53/53}{File transfer(s)}{0}}}
\@writefile{nav}{\headcommand {\beamer@framepages {53}{53}}}
\HyField@AuxAddToFields{3086}
\HyField@AuxAddToFields{3088}
\HyField@AuxAddToFields{3090}
\HyField@AuxAddToFields{3092}
\HyField@AuxAddToFields{3094}
\HyField@AuxAddToFields{3096}
\@writefile{nav}{\headcommand {\slideentry {5}{2}{2}{54/54}{File transfer(s)}{0}}}
\@writefile{nav}{\headcommand {\beamer@framepages {54}{54}}}
\HyField@AuxAddToFields{3140}
\HyField@AuxAddToFields{3142}
\HyField@AuxAddToFields{3144}
\HyField@AuxAddToFields{3146}
\HyField@AuxAddToFields{3148}
\HyField@AuxAddToFields{3150}
\HyField@AuxAddToFields{3196}
\HyField@AuxAddToFields{3198}
\HyField@AuxAddToFields{3200}
\HyField@AuxAddToFields{3202}
\HyField@AuxAddToFields{3204}
\HyField@AuxAddToFields{3206}
\HyField@AuxAddToFields{3252}
\HyField@AuxAddToFields{3254}
\HyField@AuxAddToFields{3256}
\HyField@AuxAddToFields{3258}
\HyField@AuxAddToFields{3260}
\HyField@AuxAddToFields{3262}
\@writefile{nav}{\headcommand {\slideentry {5}{2}{3}{55/57}{File transfer(s)}{0}}}
\@writefile{nav}{\headcommand {\beamer@framepages {55}{57}}}
\HyField@AuxAddToFields{3307}
\HyField@AuxAddToFields{3309}
\HyField@AuxAddToFields{3311}
\HyField@AuxAddToFields{3313}
\HyField@AuxAddToFields{3315}
\HyField@AuxAddToFields{3317}
\@writefile{nav}{\headcommand {\beamer@partpages {1}{57}}}
\@writefile{nav}{\headcommand {\beamer@subsectionpages {53}{57}}}
\@writefile{nav}{\headcommand {\beamer@sectionpages {48}{57}}}
\@writefile{nav}{\headcommand {\beamer@documentpages {57}}}
\@writefile{nav}{\headcommand {\def \inserttotalframenumber {33}}}
