\relax 
\@writefile{toc}{\contentsline {section}{\numberline {1}Introduction}{2}}
\citation{o2004human}
\citation{smith1998electronic}
\citation{o2004human}
\citation{eloff2003information}
\citation{eloff2005information}
\citation{grobler-new}
\@writefile{toc}{\contentsline {section}{\numberline {2}Background}{3}}
\@writefile{toc}{\contentsline {section}{\numberline {3}Model used}{4}}
\newlabel{sec:model-used}{{3}{4}}
\@writefile{lof}{\contentsline {figure}{\numberline {1}{\ignorespaces Model for ICS}}{4}}
\newlabel{fig:model}{{1}{4}}
\@writefile{toc}{\contentsline {subsection}{\numberline {3.1}Human aspects}{4}}
\newlabel{sec:human-aspects}{{3.1}{4}}
\@writefile{toc}{\contentsline {subsection}{\numberline {3.2}Environmental aspects}{5}}
\newlabel{sec:environment}{{3.2}{5}}
\@writefile{toc}{\contentsline {subsection}{\numberline {3.3}Computing platforms}{5}}
\newlabel{sec:systems}{{3.3}{5}}
\@writefile{toc}{\contentsline {subsection}{\numberline {3.4}Communications}{5}}
\newlabel{sec:communications}{{3.4}{5}}
\@writefile{toc}{\contentsline {subsection}{\numberline {3.5}Mathematical aspects}{5}}
\newlabel{sec:maths}{{3.5}{5}}
\@writefile{toc}{\contentsline {section}{\numberline {4}Conclusion}{5}}
