\relax 
\providecommand\hyper@newdestlabel[2]{}
\providecommand\BKM@entry[2]{}
\providecommand\HyperFirstAtBeginDocument{\AtBeginDocument}
\HyperFirstAtBeginDocument{\ifx\hyper@anchor\@undefined
\global\let\oldcontentsline\contentsline
\gdef\contentsline#1#2#3#4{\oldcontentsline{#1}{#2}{#3}}
\global\let\oldnewlabel\newlabel
\gdef\newlabel#1#2{\newlabelxx{#1}#2}
\gdef\newlabelxx#1#2#3#4#5#6{\oldnewlabel{#1}{{#2}{#3}}}
\AtEndDocument{\ifx\hyper@anchor\@undefined
\let\contentsline\oldcontentsline
\let\newlabel\oldnewlabel
\fi}
\fi}
\global\let\hyper@last\relax 
\gdef\HyperFirstAtBeginDocument#1{#1}
\providecommand\HyField@AuxAddToFields[1]{}
\providecommand\HyField@AuxAddToCoFields[2]{}
\select@language{english}
\@writefile{toc}{\select@language{english}}
\@writefile{lof}{\select@language{english}}
\@writefile{lot}{\select@language{english}}
\@writefile{nav}{\headcommand {\slideentry {0}{0}{1}{1/1}{}{0}}}
\@writefile{nav}{\headcommand {\beamer@framepages {1}{1}}}
\HyField@AuxAddToFields{70}
\HyField@AuxAddToFields{72}
\HyField@AuxAddToFields{74}
\HyField@AuxAddToFields{76}
\HyField@AuxAddToFields{78}
\HyField@AuxAddToFields{80}
\HyField@AuxAddToFields{119}
\HyField@AuxAddToFields{120}
\HyField@AuxAddToFields{121}
\HyField@AuxAddToFields{122}
\HyField@AuxAddToFields{123}
\HyField@AuxAddToFields{124}
\HyField@AuxAddToFields{125}
\HyField@AuxAddToFields{126}
\HyField@AuxAddToFields{127}
\HyField@AuxAddToFields{128}
\HyField@AuxAddToFields{129}
\HyField@AuxAddToFields{130}
\HyField@AuxAddToFields{131}
\HyField@AuxAddToFields{132}
\HyField@AuxAddToFields{133}
\@writefile{nav}{\headcommand {\slideentry {0}{0}{2}{2/2}{}{0}}}
\@writefile{nav}{\headcommand {\beamer@framepages {2}{2}}}
\HyField@AuxAddToFields{167}
\HyField@AuxAddToFields{169}
\HyField@AuxAddToFields{171}
\HyField@AuxAddToFields{173}
\HyField@AuxAddToFields{175}
\HyField@AuxAddToFields{177}
\BKM@entry{id=1,open,dest={4F75746C696E65302E31},srcline={63}}{50726F626C656D207769746820494353}
\BKM@entry{id=2,open,dest={4F75746C696E65302E312E312E33},srcline={64}}{506572736F6E616C20657870657269656E636573}
\@writefile{toc}{\beamer@sectionintoc {1}{Problem with ICS}{3}{0}{1}}
\@writefile{nav}{\headcommand {\sectionentry {1}{Problem with ICS}{3}{Problem with ICS}{0}}}
\@writefile{nav}{\headcommand {\beamer@sectionpages {1}{2}}}
\@writefile{nav}{\headcommand {\beamer@subsectionpages {1}{2}}}
\@writefile{toc}{\beamer@subsectionintoc {1}{1}{Personal experiences}{3}{0}{1}}
\@writefile{nav}{\headcommand {\beamer@subsectionentry {0}{1}{1}{3}{Personal experiences}}\headcommand {\beamer@subsectionpages {3}{2}}}
\@writefile{nav}{\headcommand {\slideentry {1}{1}{1}{3/3}{Personal experiences}{0}}}
\@writefile{nav}{\headcommand {\beamer@framepages {3}{3}}}
\HyField@AuxAddToFields{214}
\HyField@AuxAddToFields{216}
\HyField@AuxAddToFields{218}
\HyField@AuxAddToFields{220}
\HyField@AuxAddToFields{222}
\HyField@AuxAddToFields{224}
\@writefile{nav}{\headcommand {\slideentry {1}{1}{2}{4/4}{Personal experiences}{0}}}
\@writefile{nav}{\headcommand {\beamer@framepages {4}{4}}}
\HyField@AuxAddToFields{265}
\HyField@AuxAddToFields{267}
\HyField@AuxAddToFields{269}
\HyField@AuxAddToFields{271}
\HyField@AuxAddToFields{273}
\HyField@AuxAddToFields{275}
\BKM@entry{id=3,open,dest={4F75746C696E65302E312E322E35},srcline={86}}{466F637573206F6E20746563686E6F6C6F6779}
\@writefile{toc}{\beamer@subsectionintoc {1}{2}{Focus on technology}{5}{0}{1}}
\@writefile{nav}{\headcommand {\beamer@subsectionentry {0}{1}{2}{5}{Focus on technology}}\headcommand {\beamer@subsectionpages {3}{4}}}
\HyField@AuxAddToFields{312}
\HyField@AuxAddToFields{314}
\HyField@AuxAddToFields{316}
\HyField@AuxAddToFields{318}
\HyField@AuxAddToFields{320}
\HyField@AuxAddToFields{322}
\@writefile{nav}{\headcommand {\slideentry {1}{2}{1}{5/6}{Focus on technology}{0}}}
\@writefile{nav}{\headcommand {\beamer@framepages {5}{6}}}
\HyField@AuxAddToFields{360}
\HyField@AuxAddToFields{362}
\HyField@AuxAddToFields{364}
\HyField@AuxAddToFields{366}
\HyField@AuxAddToFields{368}
\HyField@AuxAddToFields{370}
\BKM@entry{id=4,open,dest={4F75746C696E65302E312E332E37},srcline={97}}{50656F706C6520646F206E6F7420756E6465727374616E64207365637572697479}
\@writefile{toc}{\beamer@subsectionintoc {1}{3}{People do not understand security}{7}{0}{1}}
\@writefile{nav}{\headcommand {\beamer@subsectionentry {0}{1}{3}{7}{People do not understand security}}\headcommand {\beamer@subsectionpages {5}{6}}}
\HyField@AuxAddToFields{408}
\HyField@AuxAddToFields{410}
\HyField@AuxAddToFields{412}
\HyField@AuxAddToFields{414}
\HyField@AuxAddToFields{416}
\HyField@AuxAddToFields{418}
\@writefile{nav}{\headcommand {\slideentry {1}{3}{1}{7/8}{People do not understand security}{0}}}
\@writefile{nav}{\headcommand {\beamer@framepages {7}{8}}}
\HyField@AuxAddToFields{457}
\HyField@AuxAddToFields{459}
\HyField@AuxAddToFields{461}
\HyField@AuxAddToFields{463}
\HyField@AuxAddToFields{465}
\HyField@AuxAddToFields{467}
\BKM@entry{id=5,open,dest={4F75746C696E65302E32},srcline={112}}{507972616D6964206D6F64656C20746F206578706C61696E20494353}
\BKM@entry{id=6,open,dest={4F75746C696E65302E322E312E39},srcline={113}}{44657269766174696F6E}
\@writefile{toc}{\beamer@sectionintoc {2}{Pyramid model to explain ICS}{9}{0}{2}}
\@writefile{nav}{\headcommand {\sectionentry {2}{Pyramid model to explain ICS}{9}{Pyramid model to explain ICS}{0}}}
\@writefile{nav}{\headcommand {\beamer@sectionpages {3}{8}}}
\@writefile{nav}{\headcommand {\beamer@subsectionpages {7}{8}}}
\@writefile{toc}{\beamer@subsectionintoc {2}{1}{Derivation}{9}{0}{2}}
\@writefile{nav}{\headcommand {\beamer@subsectionentry {0}{2}{1}{9}{Derivation}}\headcommand {\beamer@subsectionpages {9}{8}}}
\HyField@AuxAddToFields{504}
\HyField@AuxAddToFields{506}
\HyField@AuxAddToFields{508}
\HyField@AuxAddToFields{510}
\HyField@AuxAddToFields{512}
\HyField@AuxAddToFields{514}
\HyField@AuxAddToFields{554}
\HyField@AuxAddToFields{556}
\HyField@AuxAddToFields{558}
\HyField@AuxAddToFields{560}
\HyField@AuxAddToFields{562}
\HyField@AuxAddToFields{564}
\HyField@AuxAddToFields{601}
\HyField@AuxAddToFields{603}
\HyField@AuxAddToFields{605}
\HyField@AuxAddToFields{607}
\HyField@AuxAddToFields{609}
\HyField@AuxAddToFields{611}
\HyField@AuxAddToFields{648}
\HyField@AuxAddToFields{650}
\HyField@AuxAddToFields{652}
\HyField@AuxAddToFields{654}
\HyField@AuxAddToFields{656}
\HyField@AuxAddToFields{658}
\HyField@AuxAddToFields{696}
\HyField@AuxAddToFields{698}
\HyField@AuxAddToFields{700}
\HyField@AuxAddToFields{702}
\HyField@AuxAddToFields{704}
\HyField@AuxAddToFields{706}
\@writefile{nav}{\headcommand {\slideentry {2}{1}{1}{9/14}{Derivation}{0}}}
\@writefile{nav}{\headcommand {\beamer@framepages {9}{14}}}
\HyField@AuxAddToFields{744}
\HyField@AuxAddToFields{746}
\HyField@AuxAddToFields{748}
\HyField@AuxAddToFields{750}
\HyField@AuxAddToFields{752}
\HyField@AuxAddToFields{754}
\BKM@entry{id=7,open,dest={4F75746C696E65302E322E322E3135},srcline={129}}{507972616D6964}
\@writefile{toc}{\beamer@subsectionintoc {2}{2}{Pyramid}{15}{0}{2}}
\@writefile{nav}{\headcommand {\beamer@subsectionentry {0}{2}{2}{15}{Pyramid}}\headcommand {\beamer@subsectionpages {9}{14}}}
\@writefile{nav}{\headcommand {\slideentry {2}{2}{1}{15/15}{Pyramid}{0}}}
\@writefile{nav}{\headcommand {\beamer@framepages {15}{15}}}
\HyField@AuxAddToFields{792}
\HyField@AuxAddToFields{794}
\HyField@AuxAddToFields{796}
\HyField@AuxAddToFields{798}
\HyField@AuxAddToFields{800}
\HyField@AuxAddToFields{802}
\@writefile{nav}{\headcommand {\beamer@subsectionentry {0}{2}{3}{16}{Threshold}}\headcommand {\beamer@subsectionpages {15}{15}}}
\@writefile{nav}{\headcommand {\slideentry {2}{3}{1}{16/16}{Threshold}{0}}}
\@writefile{nav}{\headcommand {\beamer@framepages {16}{16}}}
\HyField@AuxAddToFields{851}
\HyField@AuxAddToFields{853}
\HyField@AuxAddToFields{855}
\HyField@AuxAddToFields{857}
\HyField@AuxAddToFields{859}
\HyField@AuxAddToFields{861}
\BKM@entry{id=8,open,dest={4F75746C696E65302E33},srcline={144}}{53756D6D617279}
\@writefile{toc}{\beamer@sectionintoc {3}{Summary}{17}{0}{3}}
\@writefile{nav}{\headcommand {\sectionentry {3}{Summary}{17}{Summary}{0}}}
\@writefile{nav}{\headcommand {\beamer@sectionpages {9}{16}}}
\@writefile{nav}{\headcommand {\beamer@subsectionpages {16}{16}}}
\@writefile{nav}{\headcommand {\slideentry {3}{0}{1}{17/17}{}{0}}}
\@writefile{nav}{\headcommand {\beamer@framepages {17}{17}}}
\HyField@AuxAddToFields{908}
\HyField@AuxAddToFields{910}
\HyField@AuxAddToFields{912}
\HyField@AuxAddToFields{914}
\HyField@AuxAddToFields{916}
\HyField@AuxAddToFields{918}
\@writefile{nav}{\headcommand {\beamer@subsectionentry {0}{3}{1}{18}{Future Work}}\headcommand {\beamer@subsectionpages {17}{17}}}
\@writefile{nav}{\headcommand {\slideentry {3}{1}{1}{18/18}{Future Work}{0}}}
\@writefile{nav}{\headcommand {\beamer@framepages {18}{18}}}
\HyField@AuxAddToFields{956}
\HyField@AuxAddToFields{958}
\HyField@AuxAddToFields{960}
\HyField@AuxAddToFields{962}
\HyField@AuxAddToFields{964}
\HyField@AuxAddToFields{966}
\@writefile{nav}{\headcommand {\beamer@subsectionentry {0}{3}{2}{19}{Q\&A}}\headcommand {\beamer@subsectionpages {18}{18}}}
\@writefile{nav}{\headcommand {\slideentry {3}{2}{1}{19/19}{Q\&A}{0}}}
\@writefile{nav}{\headcommand {\beamer@framepages {19}{19}}}
\HyField@AuxAddToFields{1005}
\HyField@AuxAddToFields{1007}
\HyField@AuxAddToFields{1009}
\HyField@AuxAddToFields{1011}
\HyField@AuxAddToFields{1013}
\HyField@AuxAddToFields{1015}
\@writefile{nav}{\headcommand {\beamer@partpages {1}{19}}}
\@writefile{nav}{\headcommand {\beamer@subsectionpages {19}{19}}}
\@writefile{nav}{\headcommand {\beamer@sectionpages {17}{19}}}
\@writefile{nav}{\headcommand {\beamer@documentpages {19}}}
\@writefile{nav}{\headcommand {\def \inserttotalframenumber {12}}}
