\relax 
\citation{schneier2000secrets}
\citation{von2000information}
\@writefile{toc}{\contentsline {section}{\numberline {I}Introduction}{1}}
\@writefile{toc}{\contentsline {section}{\numberline {II}Background}{1}}
\citation{o2004human}
\citation{o2004human}
\citation{eloff2003information}
\citation{eloff2005information}
\citation{grobler-new}
\citation{von2009information}
\@writefile{toc}{\contentsline {section}{\numberline {III}History of the model}{2}}
\newlabel{sec:history}{{III}{2}}
\@writefile{toc}{\contentsline {section}{\numberline {IV}Proposed Model }{2}}
\newlabel{sec:model-used}{{IV}{2}}
\@writefile{lof}{\contentsline {figure}{\numberline {1}{\ignorespaces Model for ICS}}{2}}
\newlabel{fig:model}{{1}{2}}
\citation{schneier2000secrets}
\citation{anderson1993cryptosystems}
\citation{Krebs:rt}
\citation{von2009information}
\@writefile{toc}{\contentsline {subsection}{\numberline {\unhbox \voidb@x \hbox {IV-A}}Human aspects}{3}}
\newlabel{sec:human-aspects}{{\unhbox \voidb@x \hbox {IV-A}}{3}}
\@writefile{toc}{\contentsline {subsection}{\numberline {\unhbox \voidb@x \hbox {IV-B}}Environmental aspects}{3}}
\newlabel{sec:environment}{{\unhbox \voidb@x \hbox {IV-B}}{3}}
\@writefile{toc}{\contentsline {subsection}{\numberline {\unhbox \voidb@x \hbox {IV-C}}Computing platforms}{3}}
\newlabel{sec:systems}{{\unhbox \voidb@x \hbox {IV-C}}{3}}
\citation{homer2009sat}
\citation{o2004human}
\@writefile{toc}{\contentsline {subsection}{\numberline {\unhbox \voidb@x \hbox {IV-D}}Communications}{4}}
\newlabel{sec:communications}{{\unhbox \voidb@x \hbox {IV-D}}{4}}
\newlabel{sec:intern-vers-extern}{{\unhbox \voidb@x \hbox {IV-D}}{4}}
\@writefile{toc}{\contentsline {subsection}{\numberline {\unhbox \voidb@x \hbox {IV-E}}Scientific elements}{5}}
\newlabel{sec:maths}{{\unhbox \voidb@x \hbox {IV-E}}{5}}
\@writefile{toc}{\contentsline {section}{\numberline {V}Value of the model}{5}}
\newlabel{sec:value-model}{{V}{5}}
\@writefile{toc}{\contentsline {section}{\numberline {VI}Future work}{5}}
\newlabel{sec:future-work}{{VI}{5}}
\@writefile{toc}{\contentsline {section}{\numberline {VII}Conclusion}{5}}
\newlabel{sec:conclusion}{{VII}{5}}
\bibstyle{IEEEtran}
\bibdata{IEEEabrv,model-issa,../issa}
\bibcite{schneier2000secrets}{1}
\bibcite{von2000information}{2}
\bibcite{o2004human}{3}
\bibcite{smith1998electronic}{4}
\bibcite{eloff2003information}{5}
\bibcite{eloff2005information}{6}
\bibcite{grobler-new}{7}
\bibcite{von2009information}{8}
\bibcite{anderson1993cryptosystems}{9}
\bibcite{Krebs:rt}{10}
\bibcite{homer2009sat}{11}
\@writefile{toc}{\contentsline {section}{References}{6}}
