\relax 
\providecommand\hyper@newdestlabel[2]{}
\providecommand\BKM@entry[2]{}
\providecommand\HyperFirstAtBeginDocument{\AtBeginDocument}
\HyperFirstAtBeginDocument{\ifx\hyper@anchor\@undefined
\global\let\oldcontentsline\contentsline
\gdef\contentsline#1#2#3#4{\oldcontentsline{#1}{#2}{#3}}
\global\let\oldnewlabel\newlabel
\gdef\newlabel#1#2{\newlabelxx{#1}#2}
\gdef\newlabelxx#1#2#3#4#5#6{\oldnewlabel{#1}{{#2}{#3}}}
\AtEndDocument{\ifx\hyper@anchor\@undefined
\let\contentsline\oldcontentsline
\let\newlabel\oldnewlabel
\fi}
\fi}
\global\let\hyper@last\relax 
\gdef\HyperFirstAtBeginDocument#1{#1}
\providecommand\HyField@AuxAddToFields[1]{}
\providecommand\HyField@AuxAddToCoFields[2]{}
\@writefile{toc}{\beamer@endinputifotherversion {3.26pt}}
\@writefile{nav}{\beamer@endinputifotherversion {3.26pt}}
\select@language{english}
\@writefile{toc}{\select@language{english}}
\@writefile{lof}{\select@language{english}}
\@writefile{lot}{\select@language{english}}
\@writefile{nav}{\headcommand {\slideentry {0}{0}{1}{1/1}{}{0}}}
\@writefile{nav}{\headcommand {\beamer@framepages {1}{1}}}
\HyField@AuxAddToFields{78}
\HyField@AuxAddToFields{80}
\HyField@AuxAddToFields{82}
\HyField@AuxAddToFields{84}
\HyField@AuxAddToFields{86}
\HyField@AuxAddToFields{88}
\HyField@AuxAddToFields{136}
\HyField@AuxAddToFields{137}
\HyField@AuxAddToFields{138}
\HyField@AuxAddToFields{139}
\HyField@AuxAddToFields{140}
\HyField@AuxAddToFields{141}
\HyField@AuxAddToFields{142}
\HyField@AuxAddToFields{143}
\HyField@AuxAddToFields{144}
\HyField@AuxAddToFields{145}
\HyField@AuxAddToFields{146}
\HyField@AuxAddToFields{147}
\HyField@AuxAddToFields{148}
\HyField@AuxAddToFields{149}
\HyField@AuxAddToFields{150}
\@writefile{nav}{\headcommand {\slideentry {0}{0}{2}{2/2}{}{0}}}
\@writefile{nav}{\headcommand {\beamer@framepages {2}{2}}}
\HyField@AuxAddToFields{196}
\HyField@AuxAddToFields{198}
\HyField@AuxAddToFields{200}
\HyField@AuxAddToFields{202}
\HyField@AuxAddToFields{204}
\HyField@AuxAddToFields{206}
\BKM@entry{id=1,open,dest={4F75746C696E65302E31},srcline={63}}{50726F626C656D207769746820494353}
\BKM@entry{id=2,open,dest={4F75746C696E65302E312E312E33},srcline={64}}{506572736F6E616C20657870657269656E636573}
\@writefile{toc}{\beamer@sectionintoc {1}{Problem with ICS}{3}{0}{1}}
\@writefile{nav}{\headcommand {\sectionentry {1}{Problem with ICS}{3}{Problem with ICS}{0}}}
\@writefile{nav}{\headcommand {\beamer@sectionpages {1}{2}}}
\@writefile{nav}{\headcommand {\beamer@subsectionpages {1}{2}}}
\@writefile{toc}{\beamer@subsectionintoc {1}{1}{Personal experiences}{3}{0}{1}}
\@writefile{nav}{\headcommand {\beamer@subsectionentry {0}{1}{1}{3}{Personal experiences}}\headcommand {\beamer@subsectionpages {3}{2}}}
\@writefile{nav}{\headcommand {\slideentry {1}{1}{1}{3/3}{Personal experiences}{0}}}
\@writefile{nav}{\headcommand {\beamer@framepages {3}{3}}}
\HyField@AuxAddToFields{255}
\HyField@AuxAddToFields{257}
\HyField@AuxAddToFields{259}
\HyField@AuxAddToFields{261}
\HyField@AuxAddToFields{263}
\HyField@AuxAddToFields{265}
\@writefile{nav}{\headcommand {\slideentry {1}{1}{2}{4/4}{Personal experiences}{0}}}
\@writefile{nav}{\headcommand {\beamer@framepages {4}{4}}}
\HyField@AuxAddToFields{311}
\HyField@AuxAddToFields{313}
\HyField@AuxAddToFields{315}
\HyField@AuxAddToFields{317}
\HyField@AuxAddToFields{319}
\HyField@AuxAddToFields{321}
\BKM@entry{id=3,open,dest={4F75746C696E65302E312E322E35},srcline={86}}{466F637573206F6E20746563686E6F6C6F6779}
\@writefile{toc}{\beamer@subsectionintoc {1}{2}{Focus on technology}{5}{0}{1}}
\@writefile{nav}{\headcommand {\beamer@subsectionentry {0}{1}{2}{5}{Focus on technology}}\headcommand {\beamer@subsectionpages {3}{4}}}
\HyField@AuxAddToFields{364}
\HyField@AuxAddToFields{366}
\HyField@AuxAddToFields{368}
\HyField@AuxAddToFields{370}
\HyField@AuxAddToFields{372}
\HyField@AuxAddToFields{374}
\@writefile{nav}{\headcommand {\slideentry {1}{2}{1}{5/6}{Focus on technology}{0}}}
\@writefile{nav}{\headcommand {\beamer@framepages {5}{6}}}
\HyField@AuxAddToFields{420}
\HyField@AuxAddToFields{422}
\HyField@AuxAddToFields{424}
\HyField@AuxAddToFields{426}
\HyField@AuxAddToFields{428}
\HyField@AuxAddToFields{430}
\BKM@entry{id=4,open,dest={4F75746C696E65302E312E332E37},srcline={97}}{50656F706C6520646F206E6F7420756E6465727374616E64207365637572697479}
\@writefile{toc}{\beamer@subsectionintoc {1}{3}{People do not understand security}{7}{0}{1}}
\@writefile{nav}{\headcommand {\beamer@subsectionentry {0}{1}{3}{7}{People do not understand security}}\headcommand {\beamer@subsectionpages {5}{6}}}
\HyField@AuxAddToFields{472}
\HyField@AuxAddToFields{474}
\HyField@AuxAddToFields{476}
\HyField@AuxAddToFields{478}
\HyField@AuxAddToFields{480}
\HyField@AuxAddToFields{482}
\@writefile{nav}{\headcommand {\slideentry {1}{3}{1}{7/8}{People do not understand security}{0}}}
\@writefile{nav}{\headcommand {\beamer@framepages {7}{8}}}
\HyField@AuxAddToFields{526}
\HyField@AuxAddToFields{528}
\HyField@AuxAddToFields{530}
\HyField@AuxAddToFields{532}
\HyField@AuxAddToFields{534}
\HyField@AuxAddToFields{536}
\BKM@entry{id=5,open,dest={4F75746C696E65302E32},srcline={112}}{507972616D6964206D6F64656C20746F206578706C61696E20494353}
\BKM@entry{id=6,open,dest={4F75746C696E65302E322E312E39},srcline={113}}{44657269766174696F6E}
\@writefile{toc}{\beamer@sectionintoc {2}{Pyramid model to explain ICS}{9}{0}{2}}
\@writefile{nav}{\headcommand {\sectionentry {2}{Pyramid model to explain ICS}{9}{Pyramid model to explain ICS}{0}}}
\@writefile{nav}{\headcommand {\beamer@sectionpages {3}{8}}}
\@writefile{nav}{\headcommand {\beamer@subsectionpages {7}{8}}}
\@writefile{toc}{\beamer@subsectionintoc {2}{1}{Derivation}{9}{0}{2}}
\@writefile{nav}{\headcommand {\beamer@subsectionentry {0}{2}{1}{9}{Derivation}}\headcommand {\beamer@subsectionpages {9}{8}}}
\HyField@AuxAddToFields{580}
\HyField@AuxAddToFields{582}
\HyField@AuxAddToFields{584}
\HyField@AuxAddToFields{586}
\HyField@AuxAddToFields{588}
\HyField@AuxAddToFields{590}
\HyField@AuxAddToFields{638}
\HyField@AuxAddToFields{640}
\HyField@AuxAddToFields{642}
\HyField@AuxAddToFields{644}
\HyField@AuxAddToFields{646}
\HyField@AuxAddToFields{648}
\HyField@AuxAddToFields{692}
\HyField@AuxAddToFields{694}
\HyField@AuxAddToFields{696}
\HyField@AuxAddToFields{698}
\HyField@AuxAddToFields{700}
\HyField@AuxAddToFields{702}
\HyField@AuxAddToFields{745}
\HyField@AuxAddToFields{747}
\HyField@AuxAddToFields{749}
\HyField@AuxAddToFields{751}
\HyField@AuxAddToFields{753}
\HyField@AuxAddToFields{755}
\HyField@AuxAddToFields{798}
\HyField@AuxAddToFields{800}
\HyField@AuxAddToFields{802}
\HyField@AuxAddToFields{804}
\HyField@AuxAddToFields{806}
\HyField@AuxAddToFields{808}
\@writefile{nav}{\headcommand {\slideentry {2}{1}{1}{9/14}{Derivation}{0}}}
\@writefile{nav}{\headcommand {\beamer@framepages {9}{14}}}
\HyField@AuxAddToFields{852}
\HyField@AuxAddToFields{854}
\HyField@AuxAddToFields{856}
\HyField@AuxAddToFields{858}
\HyField@AuxAddToFields{860}
\HyField@AuxAddToFields{862}
\BKM@entry{id=7,open,dest={4F75746C696E65302E322E322E3135},srcline={129}}{507972616D6964}
\@writefile{toc}{\beamer@subsectionintoc {2}{2}{Pyramid}{15}{0}{2}}
\@writefile{nav}{\headcommand {\beamer@subsectionentry {0}{2}{2}{15}{Pyramid}}\headcommand {\beamer@subsectionpages {9}{14}}}
\@writefile{nav}{\headcommand {\slideentry {2}{2}{1}{15/15}{Pyramid}{0}}}
\@writefile{nav}{\headcommand {\beamer@framepages {15}{15}}}
\HyField@AuxAddToFields{905}
\HyField@AuxAddToFields{907}
\HyField@AuxAddToFields{909}
\HyField@AuxAddToFields{911}
\HyField@AuxAddToFields{913}
\HyField@AuxAddToFields{915}
\@writefile{nav}{\headcommand {\beamer@subsectionentry {0}{2}{3}{16}{Threshold}}\headcommand {\beamer@subsectionpages {15}{15}}}
\@writefile{nav}{\headcommand {\slideentry {2}{3}{1}{16/16}{Threshold}{0}}}
\@writefile{nav}{\headcommand {\beamer@framepages {16}{16}}}
\HyField@AuxAddToFields{969}
\HyField@AuxAddToFields{971}
\HyField@AuxAddToFields{973}
\HyField@AuxAddToFields{975}
\HyField@AuxAddToFields{977}
\HyField@AuxAddToFields{979}
\BKM@entry{id=8,open,dest={4F75746C696E65302E33},srcline={144}}{53756D6D617279}
\@writefile{toc}{\beamer@sectionintoc {3}{Summary}{17}{0}{3}}
\@writefile{nav}{\headcommand {\sectionentry {3}{Summary}{17}{Summary}{0}}}
\@writefile{nav}{\headcommand {\beamer@sectionpages {9}{16}}}
\@writefile{nav}{\headcommand {\beamer@subsectionpages {16}{16}}}
\@writefile{nav}{\headcommand {\slideentry {3}{0}{2}{17/17}{}{0}}}
\@writefile{nav}{\headcommand {\beamer@framepages {17}{17}}}
\HyField@AuxAddToFields{1030}
\HyField@AuxAddToFields{1032}
\HyField@AuxAddToFields{1034}
\HyField@AuxAddToFields{1036}
\HyField@AuxAddToFields{1038}
\HyField@AuxAddToFields{1040}
\@writefile{nav}{\headcommand {\beamer@subsectionentry {0}{3}{1}{18}{Future Work}}\headcommand {\beamer@subsectionpages {17}{17}}}
\@writefile{nav}{\headcommand {\slideentry {3}{1}{1}{18/18}{Future Work}{0}}}
\@writefile{nav}{\headcommand {\beamer@framepages {18}{18}}}
\HyField@AuxAddToFields{1083}
\HyField@AuxAddToFields{1085}
\HyField@AuxAddToFields{1087}
\HyField@AuxAddToFields{1089}
\HyField@AuxAddToFields{1091}
\HyField@AuxAddToFields{1093}
\@writefile{nav}{\headcommand {\beamer@subsectionentry {0}{3}{2}{19}{Q\&A}}\headcommand {\beamer@subsectionpages {18}{18}}}
\@writefile{nav}{\headcommand {\slideentry {3}{2}{1}{19/19}{Q\&A}{0}}}
\@writefile{nav}{\headcommand {\beamer@framepages {19}{19}}}
\HyField@AuxAddToFields{1136}
\HyField@AuxAddToFields{1138}
\HyField@AuxAddToFields{1140}
\HyField@AuxAddToFields{1142}
\HyField@AuxAddToFields{1144}
\HyField@AuxAddToFields{1146}
\@writefile{nav}{\headcommand {\beamer@partpages {1}{19}}}
\@writefile{nav}{\headcommand {\beamer@subsectionpages {19}{19}}}
\@writefile{nav}{\headcommand {\beamer@sectionpages {17}{19}}}
\@writefile{nav}{\headcommand {\beamer@documentpages {19}}}
\@writefile{nav}{\headcommand {\def \inserttotalframenumber {12}}}
