\beamer@endinputifotherversion {3.26pt}
\select@language {english}
\beamer@sectionintoc {1}{Problem with ICS}{3}{0}{1}
\beamer@subsectionintoc {1}{1}{Personal experiences}{3}{0}{1}
\beamer@subsectionintoc {1}{2}{Focus on technology}{5}{0}{1}
\beamer@subsectionintoc {1}{3}{People do not understand security}{7}{0}{1}
\beamer@sectionintoc {2}{Pyramid model to explain ICS}{9}{0}{2}
\beamer@subsectionintoc {2}{1}{Derivation}{9}{0}{2}
\beamer@subsectionintoc {2}{2}{Pyramid}{15}{0}{2}
\beamer@sectionintoc {3}{Summary}{17}{0}{3}
