\relax 
\providecommand\HyperFirstAtBeginDocument{\AtBeginDocument}
\HyperFirstAtBeginDocument{\ifx\hyper@anchor\@undefined
\global\let\oldcontentsline\contentsline
\gdef\contentsline#1#2#3#4{\oldcontentsline{#1}{#2}{#3}}
\global\let\oldnewlabel\newlabel
\gdef\newlabel#1#2{\newlabelxx{#1}#2}
\gdef\newlabelxx#1#2#3#4#5#6{\oldnewlabel{#1}{{#2}{#3}}}
\AtEndDocument{\ifx\hyper@anchor\@undefined
\let\contentsline\oldcontentsline
\let\newlabel\oldnewlabel
\fi}
\fi}
\global\let\hyper@last\relax 
\gdef\HyperFirstAtBeginDocument#1{#1}
\providecommand\HyField@AuxAddToFields[1]{}
\@writefile{toc}{\beamer@endinputifotherversion {3.07pt}}
\@writefile{nav}{\beamer@endinputifotherversion {3.07pt}}
\select@language{english}
\@writefile{toc}{\select@language{english}}
\@writefile{lof}{\select@language{english}}
\@writefile{lot}{\select@language{english}}
\@writefile{nav}{\headcommand {\slideentry {0}{0}{1}{1/1}{}{0}}}
\@writefile{nav}{\headcommand {\beamer@framepages {1}{1}}}
\@writefile{nav}{\headcommand {\slideentry {0}{0}{2}{2/2}{}{0}}}
\@writefile{nav}{\headcommand {\beamer@framepages {2}{2}}}
\@writefile{toc}{\beamer@sectionintoc {1}{Motivation}{3}{0}{1}}
\@writefile{nav}{\headcommand {\sectionentry {1}{Motivation}{3}{Motivation}{0}}}
\@writefile{nav}{\headcommand {\beamer@sectionpages {1}{2}}}
\@writefile{nav}{\headcommand {\beamer@subsectionpages {1}{2}}}
\@writefile{toc}{\beamer@subsectionintoc {1}{1}{Wrong security focus}{3}{0}{1}}
\@writefile{nav}{\headcommand {\beamer@subsectionentry {0}{1}{1}{3}{Wrong security focus}}\headcommand {\beamer@subsectionpages {3}{2}}}
\@writefile{nav}{\headcommand {\slideentry {1}{1}{1}{3/3}{Wrong security focus}{0}}}
\@writefile{nav}{\headcommand {\beamer@framepages {3}{3}}}
\@writefile{nav}{\headcommand {\slideentry {1}{1}{2}{4/7}{Wrong security focus}{0}}}
\@writefile{nav}{\headcommand {\beamer@framepages {4}{7}}}
\@writefile{nav}{\headcommand {\slideentry {1}{1}{3}{8/9}{Wrong security focus}{0}}}
\@writefile{nav}{\headcommand {\beamer@framepages {8}{9}}}
\@writefile{toc}{\beamer@subsectionintoc {1}{2}{Need to explain}{10}{0}{1}}
\@writefile{nav}{\headcommand {\beamer@subsectionentry {0}{1}{2}{10}{Need to explain}}\headcommand {\beamer@subsectionpages {3}{9}}}
\@writefile{nav}{\headcommand {\slideentry {1}{2}{1}{10/10}{Need to explain}{0}}}
\@writefile{nav}{\headcommand {\beamer@framepages {10}{10}}}
\@writefile{nav}{\headcommand {\slideentry {1}{2}{2}{11/11}{Need to explain}{0}}}
\@writefile{nav}{\headcommand {\beamer@framepages {11}{11}}}
\@writefile{nav}{\headcommand {\slideentry {1}{2}{3}{12/12}{Need to explain}{0}}}
\@writefile{nav}{\headcommand {\beamer@framepages {12}{12}}}
\@writefile{toc}{\beamer@sectionintoc {2}{Model }{13}{0}{2}}
\@writefile{nav}{\headcommand {\sectionentry {2}{Model }{13}{Model }{0}}}
\@writefile{nav}{\headcommand {\beamer@sectionpages {3}{12}}}
\@writefile{nav}{\headcommand {\beamer@subsectionpages {10}{12}}}
\@writefile{toc}{\beamer@subsectionintoc {2}{1}{Main Results}{13}{0}{2}}
\@writefile{nav}{\headcommand {\beamer@subsectionentry {0}{2}{1}{13}{Main Results}}\headcommand {\beamer@subsectionpages {13}{12}}}
\@writefile{nav}{\headcommand {\slideentry {2}{1}{1}{13/13}{Main Results}{0}}}
\@writefile{nav}{\headcommand {\beamer@framepages {13}{13}}}
\@writefile{nav}{\headcommand {\slideentry {2}{1}{2}{14/14}{Main Results}{0}}}
\@writefile{nav}{\headcommand {\beamer@framepages {14}{14}}}
\@writefile{nav}{\headcommand {\slideentry {2}{1}{3}{15/15}{Main Results}{0}}}
\@writefile{nav}{\headcommand {\beamer@framepages {15}{15}}}
\@writefile{nav}{\headcommand {\slideentry {2}{1}{4}{16/16}{Main Results}{0}}}
\@writefile{nav}{\headcommand {\beamer@framepages {16}{16}}}
\@writefile{toc}{\beamer@subsectionintoc {2}{2}{Basic Ideas for Proofs/Implementation}{17}{0}{2}}
\@writefile{nav}{\headcommand {\beamer@subsectionentry {0}{2}{2}{17}{Basic Ideas for Proofs/Implementation}}\headcommand {\beamer@subsectionpages {13}{16}}}
\@writefile{nav}{\headcommand {\slideentry {2}{2}{1}{17/17}{Basic Ideas for Proofs/Implementation}{0}}}
\@writefile{nav}{\headcommand {\beamer@framepages {17}{17}}}
\@writefile{nav}{\headcommand {\slideentry {2}{2}{2}{18/18}{Basic Ideas for Proofs/Implementation}{0}}}
\@writefile{nav}{\headcommand {\beamer@framepages {18}{18}}}
\@writefile{nav}{\headcommand {\slideentry {2}{2}{3}{19/19}{Basic Ideas for Proofs/Implementation}{0}}}
\@writefile{nav}{\headcommand {\beamer@framepages {19}{19}}}
\@writefile{nav}{\headcommand {\slideentry {2}{2}{4}{20/20}{Basic Ideas for Proofs/Implementation}{0}}}
\@writefile{nav}{\headcommand {\beamer@framepages {20}{20}}}
\@writefile{toc}{\beamer@sectionintoc {3}{Summary}{21}{0}{3}}
\@writefile{nav}{\headcommand {\sectionentry {3}{Summary}{21}{Summary}{0}}}
\@writefile{nav}{\headcommand {\beamer@sectionpages {13}{20}}}
\@writefile{nav}{\headcommand {\beamer@subsectionpages {17}{20}}}
\@writefile{toc}{\beamer@subsectionintoc {3}{1}{Summary}{21}{0}{3}}
\@writefile{nav}{\headcommand {\beamer@subsectionentry {0}{3}{1}{21}{Summary}}\headcommand {\beamer@subsectionpages {21}{20}}}
\@writefile{nav}{\headcommand {\slideentry {3}{1}{1}{21/21}{Summary}{0}}}
\@writefile{nav}{\headcommand {\beamer@framepages {21}{21}}}
\@writefile{nav}{\headcommand {\slideentry {3}{1}{2}{22/22}{Summary}{0}}}
\@writefile{nav}{\headcommand {\beamer@framepages {22}{22}}}
\@writefile{toc}{\beamer@subsectionintoc {3}{2}{Future work}{23}{0}{3}}
\@writefile{nav}{\headcommand {\beamer@subsectionentry {0}{3}{2}{23}{Future work}}\headcommand {\beamer@subsectionpages {21}{22}}}
\@writefile{nav}{\headcommand {\slideentry {3}{2}{1}{23/23}{Future work}{0}}}
\@writefile{nav}{\headcommand {\beamer@framepages {23}{23}}}
\@writefile{nav}{\headcommand {\slideentry {3}{2}{2}{24/24}{Future work}{0}}}
\@writefile{nav}{\headcommand {\beamer@framepages {24}{24}}}
\bibcite{Solms}{\hyperlink {beamerbibSolms}{1}}
\@writefile{nav}{\headcommand {\partentry {Appendix}{1}}}
\@writefile{nav}{\headcommand {\beamer@partpages {1}{24}}}
\@writefile{nav}{\headcommand {\beamer@sectionpages {21}{24}}}
\@writefile{nav}{\headcommand {\beamer@subsectionpages {23}{24}}}
\@writefile{nav}{\headcommand {\beamer@appendixpages {25}}}
\@writefile{nav}{\headcommand {\sectionentry {4}{Appendix}{25}{Appendix}{1}}}
\@writefile{nav}{\headcommand {\beamer@sectionpages {25}{24}}}
\@writefile{nav}{\headcommand {\beamer@subsectionpages {25}{24}}}
\@writefile{nav}{\headcommand {\beamer@subsectionentry {1}{4}{1}{25}{For Further Reading}}\headcommand {\beamer@subsectionpages {25}{24}}}
\@writefile{nav}{\headcommand {\slideentry {4}{1}{1}{25/25}{For Further Reading}{1}}}
\@writefile{nav}{\headcommand {\beamer@framepages {25}{25}}}
\@writefile{nav}{\headcommand {\beamer@partpages {25}{25}}}
\@writefile{nav}{\headcommand {\beamer@subsectionpages {25}{25}}}
\@writefile{nav}{\headcommand {\beamer@sectionpages {25}{25}}}
\@writefile{nav}{\headcommand {\beamer@documentpages {25}}}
\@writefile{nav}{\headcommand {\def \inserttotalframenumber {21}}}
