\relax 
\providecommand\hyper@newdestlabel[2]{}
\providecommand\BKM@entry[2]{}
\providecommand\HyperFirstAtBeginDocument{\AtBeginDocument}
\HyperFirstAtBeginDocument{\ifx\hyper@anchor\@undefined
\global\let\oldcontentsline\contentsline
\gdef\contentsline#1#2#3#4{\oldcontentsline{#1}{#2}{#3}}
\global\let\oldnewlabel\newlabel
\gdef\newlabel#1#2{\newlabelxx{#1}#2}
\gdef\newlabelxx#1#2#3#4#5#6{\oldnewlabel{#1}{{#2}{#3}}}
\AtEndDocument{\ifx\hyper@anchor\@undefined
\let\contentsline\oldcontentsline
\let\newlabel\oldnewlabel
\fi}
\fi}
\global\let\hyper@last\relax 
\gdef\HyperFirstAtBeginDocument#1{#1}
\providecommand\HyField@AuxAddToFields[1]{}
\providecommand\HyField@AuxAddToCoFields[2]{}
\@writefile{toc}{\beamer@endinputifotherversion {3.26pt}}
\@writefile{nav}{\beamer@endinputifotherversion {3.26pt}}
\select@language{english}
\@writefile{toc}{\select@language{english}}
\@writefile{lof}{\select@language{english}}
\@writefile{lot}{\select@language{english}}
\@writefile{nav}{\headcommand {\slideentry {0}{0}{1}{1/1}{}{0}}}
\@writefile{nav}{\headcommand {\beamer@framepages {1}{1}}}
\HyField@AuxAddToFields{97}
\HyField@AuxAddToFields{99}
\HyField@AuxAddToFields{101}
\HyField@AuxAddToFields{112}
\HyField@AuxAddToFields{114}
\HyField@AuxAddToFields{116}
\HyField@AuxAddToFields{118}
\HyField@AuxAddToFields{120}
\HyField@AuxAddToFields{122}
\HyField@AuxAddToFields{123}
\HyField@AuxAddToFields{134}
\HyField@AuxAddToFields{136}
\HyField@AuxAddToFields{138}
\HyField@AuxAddToFields{140}
\HyField@AuxAddToFields{142}
\HyField@AuxAddToFields{144}
\HyField@AuxAddToFields{192}
\HyField@AuxAddToFields{193}
\HyField@AuxAddToFields{194}
\HyField@AuxAddToFields{195}
\HyField@AuxAddToFields{196}
\HyField@AuxAddToFields{197}
\HyField@AuxAddToFields{198}
\HyField@AuxAddToFields{199}
\HyField@AuxAddToFields{200}
\HyField@AuxAddToFields{201}
\HyField@AuxAddToFields{202}
\HyField@AuxAddToFields{203}
\HyField@AuxAddToFields{204}
\HyField@AuxAddToFields{205}
\HyField@AuxAddToFields{206}
\@writefile{nav}{\headcommand {\slideentry {0}{0}{2}{2/2}{}{0}}}
\@writefile{nav}{\headcommand {\beamer@framepages {2}{2}}}
\HyField@AuxAddToFields{243}
\HyField@AuxAddToFields{245}
\HyField@AuxAddToFields{247}
\HyField@AuxAddToFields{258}
\HyField@AuxAddToFields{260}
\HyField@AuxAddToFields{262}
\HyField@AuxAddToFields{264}
\HyField@AuxAddToFields{266}
\HyField@AuxAddToFields{268}
\HyField@AuxAddToFields{269}
\HyField@AuxAddToFields{280}
\HyField@AuxAddToFields{282}
\HyField@AuxAddToFields{284}
\HyField@AuxAddToFields{286}
\HyField@AuxAddToFields{288}
\HyField@AuxAddToFields{290}
\BKM@entry{id=1,open,dest={4F75746C696E65302E31},srcline={67}}{50726F626C656D207769746820494353}
\BKM@entry{id=2,open,dest={4F75746C696E65302E312E312E33},srcline={68}}{506572736F6E616C20657870657269656E636573}
\@writefile{toc}{\beamer@sectionintoc {1}{Problem with ICS}{3}{0}{1}}
\@writefile{nav}{\headcommand {\sectionentry {1}{Problem with ICS}{3}{Problem with ICS}{0}}}
\@writefile{nav}{\headcommand {\beamer@sectionpages {1}{2}}}
\@writefile{nav}{\headcommand {\beamer@subsectionpages {1}{2}}}
\@writefile{toc}{\beamer@subsectionintoc {1}{1}{Personal experiences}{3}{0}{1}}
\@writefile{nav}{\headcommand {\beamer@subsectionentry {0}{1}{1}{3}{Personal experiences}}\headcommand {\beamer@subsectionpages {3}{2}}}
\@writefile{nav}{\headcommand {\slideentry {1}{1}{1}{3/3}{Personal experiences}{0}}}
\@writefile{nav}{\headcommand {\beamer@framepages {3}{3}}}
\HyField@AuxAddToFields{330}
\HyField@AuxAddToFields{332}
\HyField@AuxAddToFields{334}
\HyField@AuxAddToFields{345}
\HyField@AuxAddToFields{347}
\HyField@AuxAddToFields{349}
\HyField@AuxAddToFields{351}
\HyField@AuxAddToFields{353}
\HyField@AuxAddToFields{355}
\HyField@AuxAddToFields{356}
\HyField@AuxAddToFields{367}
\HyField@AuxAddToFields{369}
\HyField@AuxAddToFields{371}
\HyField@AuxAddToFields{373}
\HyField@AuxAddToFields{375}
\HyField@AuxAddToFields{377}
\@writefile{nav}{\headcommand {\slideentry {1}{1}{2}{4/4}{Personal experiences}{0}}}
\@writefile{nav}{\headcommand {\beamer@framepages {4}{4}}}
\HyField@AuxAddToFields{414}
\HyField@AuxAddToFields{416}
\HyField@AuxAddToFields{418}
\HyField@AuxAddToFields{429}
\HyField@AuxAddToFields{431}
\HyField@AuxAddToFields{433}
\HyField@AuxAddToFields{435}
\HyField@AuxAddToFields{437}
\HyField@AuxAddToFields{439}
\HyField@AuxAddToFields{440}
\HyField@AuxAddToFields{451}
\HyField@AuxAddToFields{453}
\HyField@AuxAddToFields{455}
\HyField@AuxAddToFields{457}
\HyField@AuxAddToFields{459}
\HyField@AuxAddToFields{461}
\BKM@entry{id=3,open,dest={4F75746C696E65302E312E322E35},srcline={90}}{466F637573206F6E20746563686E6F6C6F6779}
\@writefile{toc}{\beamer@subsectionintoc {1}{2}{Focus on technology}{5}{0}{1}}
\@writefile{nav}{\headcommand {\beamer@subsectionentry {0}{1}{2}{5}{Focus on technology}}\headcommand {\beamer@subsectionpages {3}{4}}}
\HyField@AuxAddToFields{496}
\HyField@AuxAddToFields{498}
\HyField@AuxAddToFields{500}
\HyField@AuxAddToFields{511}
\HyField@AuxAddToFields{513}
\HyField@AuxAddToFields{515}
\HyField@AuxAddToFields{517}
\HyField@AuxAddToFields{519}
\HyField@AuxAddToFields{521}
\HyField@AuxAddToFields{522}
\HyField@AuxAddToFields{533}
\HyField@AuxAddToFields{535}
\HyField@AuxAddToFields{537}
\HyField@AuxAddToFields{539}
\HyField@AuxAddToFields{541}
\HyField@AuxAddToFields{543}
\@writefile{nav}{\headcommand {\slideentry {1}{2}{1}{5/6}{Focus on technology}{0}}}
\@writefile{nav}{\headcommand {\beamer@framepages {5}{6}}}
\HyField@AuxAddToFields{579}
\HyField@AuxAddToFields{581}
\HyField@AuxAddToFields{583}
\HyField@AuxAddToFields{594}
\HyField@AuxAddToFields{596}
\HyField@AuxAddToFields{598}
\HyField@AuxAddToFields{600}
\HyField@AuxAddToFields{602}
\HyField@AuxAddToFields{604}
\HyField@AuxAddToFields{605}
\HyField@AuxAddToFields{616}
\HyField@AuxAddToFields{618}
\HyField@AuxAddToFields{620}
\HyField@AuxAddToFields{622}
\HyField@AuxAddToFields{624}
\HyField@AuxAddToFields{626}
\BKM@entry{id=4,open,dest={4F75746C696E65302E312E332E37},srcline={101}}{50656F706C6520646F206E6F7420756E6465727374616E64207365637572697479}
\@writefile{toc}{\beamer@subsectionintoc {1}{3}{People do not understand security}{7}{0}{1}}
\@writefile{nav}{\headcommand {\beamer@subsectionentry {0}{1}{3}{7}{People do not understand security}}\headcommand {\beamer@subsectionpages {5}{6}}}
\HyField@AuxAddToFields{660}
\HyField@AuxAddToFields{662}
\HyField@AuxAddToFields{664}
\HyField@AuxAddToFields{675}
\HyField@AuxAddToFields{677}
\HyField@AuxAddToFields{679}
\HyField@AuxAddToFields{681}
\HyField@AuxAddToFields{683}
\HyField@AuxAddToFields{685}
\HyField@AuxAddToFields{686}
\HyField@AuxAddToFields{697}
\HyField@AuxAddToFields{699}
\HyField@AuxAddToFields{701}
\HyField@AuxAddToFields{703}
\HyField@AuxAddToFields{705}
\HyField@AuxAddToFields{707}
\@writefile{nav}{\headcommand {\slideentry {1}{3}{1}{7/8}{People do not understand security}{0}}}
\@writefile{nav}{\headcommand {\beamer@framepages {7}{8}}}
\HyField@AuxAddToFields{742}
\HyField@AuxAddToFields{744}
\HyField@AuxAddToFields{746}
\HyField@AuxAddToFields{757}
\HyField@AuxAddToFields{759}
\HyField@AuxAddToFields{761}
\HyField@AuxAddToFields{763}
\HyField@AuxAddToFields{765}
\HyField@AuxAddToFields{767}
\HyField@AuxAddToFields{768}
\HyField@AuxAddToFields{779}
\HyField@AuxAddToFields{781}
\HyField@AuxAddToFields{783}
\HyField@AuxAddToFields{785}
\HyField@AuxAddToFields{787}
\HyField@AuxAddToFields{789}
\BKM@entry{id=5,open,dest={4F75746C696E65302E32},srcline={116}}{507972616D6964206D6F64656C20746F206578706C61696E20494353}
\BKM@entry{id=6,open,dest={4F75746C696E65302E322E312E39},srcline={117}}{44657269766174696F6E}
\@writefile{toc}{\beamer@sectionintoc {2}{Pyramid model to explain ICS}{9}{0}{2}}
\@writefile{nav}{\headcommand {\sectionentry {2}{Pyramid model to explain ICS}{9}{Pyramid model to explain ICS}{0}}}
\@writefile{nav}{\headcommand {\beamer@sectionpages {3}{8}}}
\@writefile{nav}{\headcommand {\beamer@subsectionpages {7}{8}}}
\@writefile{toc}{\beamer@subsectionintoc {2}{1}{Derivation}{9}{0}{2}}
\@writefile{nav}{\headcommand {\beamer@subsectionentry {0}{2}{1}{9}{Derivation}}\headcommand {\beamer@subsectionpages {9}{8}}}
\HyField@AuxAddToFields{824}
\HyField@AuxAddToFields{826}
\HyField@AuxAddToFields{828}
\HyField@AuxAddToFields{839}
\HyField@AuxAddToFields{841}
\HyField@AuxAddToFields{843}
\HyField@AuxAddToFields{845}
\HyField@AuxAddToFields{847}
\HyField@AuxAddToFields{849}
\HyField@AuxAddToFields{850}
\HyField@AuxAddToFields{861}
\HyField@AuxAddToFields{863}
\HyField@AuxAddToFields{865}
\HyField@AuxAddToFields{867}
\HyField@AuxAddToFields{869}
\HyField@AuxAddToFields{871}
\HyField@AuxAddToFields{910}
\HyField@AuxAddToFields{912}
\HyField@AuxAddToFields{914}
\HyField@AuxAddToFields{925}
\HyField@AuxAddToFields{927}
\HyField@AuxAddToFields{929}
\HyField@AuxAddToFields{931}
\HyField@AuxAddToFields{933}
\HyField@AuxAddToFields{935}
\HyField@AuxAddToFields{936}
\HyField@AuxAddToFields{947}
\HyField@AuxAddToFields{949}
\HyField@AuxAddToFields{951}
\HyField@AuxAddToFields{953}
\HyField@AuxAddToFields{955}
\HyField@AuxAddToFields{957}
\HyField@AuxAddToFields{992}
\HyField@AuxAddToFields{994}
\HyField@AuxAddToFields{996}
\HyField@AuxAddToFields{1007}
\HyField@AuxAddToFields{1009}
\HyField@AuxAddToFields{1011}
\HyField@AuxAddToFields{1013}
\HyField@AuxAddToFields{1015}
\HyField@AuxAddToFields{1017}
\HyField@AuxAddToFields{1018}
\HyField@AuxAddToFields{1029}
\HyField@AuxAddToFields{1031}
\HyField@AuxAddToFields{1033}
\HyField@AuxAddToFields{1035}
\HyField@AuxAddToFields{1037}
\HyField@AuxAddToFields{1039}
\HyField@AuxAddToFields{1073}
\HyField@AuxAddToFields{1075}
\HyField@AuxAddToFields{1077}
\HyField@AuxAddToFields{1088}
\HyField@AuxAddToFields{1090}
\HyField@AuxAddToFields{1092}
\HyField@AuxAddToFields{1094}
\HyField@AuxAddToFields{1096}
\HyField@AuxAddToFields{1098}
\HyField@AuxAddToFields{1099}
\HyField@AuxAddToFields{1110}
\HyField@AuxAddToFields{1112}
\HyField@AuxAddToFields{1114}
\HyField@AuxAddToFields{1116}
\HyField@AuxAddToFields{1118}
\HyField@AuxAddToFields{1120}
\HyField@AuxAddToFields{1155}
\HyField@AuxAddToFields{1157}
\HyField@AuxAddToFields{1159}
\HyField@AuxAddToFields{1170}
\HyField@AuxAddToFields{1172}
\HyField@AuxAddToFields{1174}
\HyField@AuxAddToFields{1176}
\HyField@AuxAddToFields{1178}
\HyField@AuxAddToFields{1180}
\HyField@AuxAddToFields{1181}
\HyField@AuxAddToFields{1192}
\HyField@AuxAddToFields{1194}
\HyField@AuxAddToFields{1196}
\HyField@AuxAddToFields{1198}
\HyField@AuxAddToFields{1200}
\HyField@AuxAddToFields{1202}
\@writefile{nav}{\headcommand {\slideentry {2}{1}{1}{9/14}{Derivation}{0}}}
\@writefile{nav}{\headcommand {\beamer@framepages {9}{14}}}
\HyField@AuxAddToFields{1236}
\HyField@AuxAddToFields{1238}
\HyField@AuxAddToFields{1240}
\HyField@AuxAddToFields{1251}
\HyField@AuxAddToFields{1253}
\HyField@AuxAddToFields{1255}
\HyField@AuxAddToFields{1257}
\HyField@AuxAddToFields{1259}
\HyField@AuxAddToFields{1261}
\HyField@AuxAddToFields{1262}
\HyField@AuxAddToFields{1273}
\HyField@AuxAddToFields{1275}
\HyField@AuxAddToFields{1277}
\HyField@AuxAddToFields{1279}
\HyField@AuxAddToFields{1281}
\HyField@AuxAddToFields{1283}
\BKM@entry{id=7,open,dest={4F75746C696E65302E322E322E3135},srcline={133}}{507972616D6964}
\@writefile{toc}{\beamer@subsectionintoc {2}{2}{Pyramid}{15}{0}{2}}
\@writefile{nav}{\headcommand {\beamer@subsectionentry {0}{2}{2}{15}{Pyramid}}\headcommand {\beamer@subsectionpages {9}{14}}}
\@writefile{nav}{\headcommand {\slideentry {2}{2}{1}{15/15}{Pyramid}{0}}}
\@writefile{nav}{\headcommand {\beamer@framepages {15}{15}}}
\HyField@AuxAddToFields{1318}
\HyField@AuxAddToFields{1320}
\HyField@AuxAddToFields{1322}
\HyField@AuxAddToFields{1333}
\HyField@AuxAddToFields{1335}
\HyField@AuxAddToFields{1337}
\HyField@AuxAddToFields{1339}
\HyField@AuxAddToFields{1341}
\HyField@AuxAddToFields{1343}
\HyField@AuxAddToFields{1344}
\HyField@AuxAddToFields{1355}
\HyField@AuxAddToFields{1357}
\HyField@AuxAddToFields{1359}
\HyField@AuxAddToFields{1361}
\HyField@AuxAddToFields{1363}
\HyField@AuxAddToFields{1365}
\@writefile{nav}{\headcommand {\beamer@subsectionentry {0}{2}{3}{16}{Threshold}}\headcommand {\beamer@subsectionpages {15}{15}}}
\@writefile{nav}{\headcommand {\slideentry {2}{3}{1}{16/16}{Threshold}{0}}}
\@writefile{nav}{\headcommand {\beamer@framepages {16}{16}}}
\HyField@AuxAddToFields{1409}
\HyField@AuxAddToFields{1411}
\HyField@AuxAddToFields{1413}
\HyField@AuxAddToFields{1424}
\HyField@AuxAddToFields{1426}
\HyField@AuxAddToFields{1428}
\HyField@AuxAddToFields{1430}
\HyField@AuxAddToFields{1432}
\HyField@AuxAddToFields{1434}
\HyField@AuxAddToFields{1435}
\HyField@AuxAddToFields{1446}
\HyField@AuxAddToFields{1448}
\HyField@AuxAddToFields{1450}
\HyField@AuxAddToFields{1452}
\HyField@AuxAddToFields{1454}
\HyField@AuxAddToFields{1456}
\BKM@entry{id=8,open,dest={4F75746C696E65302E33},srcline={148}}{53756D6D617279}
\@writefile{toc}{\beamer@sectionintoc {3}{Summary}{17}{0}{3}}
\@writefile{nav}{\headcommand {\sectionentry {3}{Summary}{17}{Summary}{0}}}
\@writefile{nav}{\headcommand {\beamer@sectionpages {9}{16}}}
\@writefile{nav}{\headcommand {\beamer@subsectionpages {16}{16}}}
\@writefile{nav}{\headcommand {\slideentry {3}{0}{2}{17/17}{}{0}}}
\@writefile{nav}{\headcommand {\beamer@framepages {17}{17}}}
\HyField@AuxAddToFields{1499}
\HyField@AuxAddToFields{1501}
\HyField@AuxAddToFields{1503}
\HyField@AuxAddToFields{1514}
\HyField@AuxAddToFields{1516}
\HyField@AuxAddToFields{1518}
\HyField@AuxAddToFields{1520}
\HyField@AuxAddToFields{1522}
\HyField@AuxAddToFields{1524}
\HyField@AuxAddToFields{1525}
\HyField@AuxAddToFields{1536}
\HyField@AuxAddToFields{1538}
\HyField@AuxAddToFields{1540}
\HyField@AuxAddToFields{1542}
\HyField@AuxAddToFields{1544}
\HyField@AuxAddToFields{1546}
\@writefile{nav}{\headcommand {\beamer@subsectionentry {0}{3}{1}{18}{Future Work}}\headcommand {\beamer@subsectionpages {17}{17}}}
\@writefile{nav}{\headcommand {\slideentry {3}{1}{1}{18/18}{Future Work}{0}}}
\@writefile{nav}{\headcommand {\beamer@framepages {18}{18}}}
\HyField@AuxAddToFields{1580}
\HyField@AuxAddToFields{1582}
\HyField@AuxAddToFields{1584}
\HyField@AuxAddToFields{1595}
\HyField@AuxAddToFields{1597}
\HyField@AuxAddToFields{1599}
\HyField@AuxAddToFields{1601}
\HyField@AuxAddToFields{1603}
\HyField@AuxAddToFields{1605}
\HyField@AuxAddToFields{1606}
\HyField@AuxAddToFields{1617}
\HyField@AuxAddToFields{1619}
\HyField@AuxAddToFields{1621}
\HyField@AuxAddToFields{1623}
\HyField@AuxAddToFields{1625}
\HyField@AuxAddToFields{1627}
\@writefile{nav}{\headcommand {\beamer@subsectionentry {0}{3}{2}{19}{Q\&A}}\headcommand {\beamer@subsectionpages {18}{18}}}
\@writefile{nav}{\headcommand {\slideentry {3}{2}{1}{19/19}{Q\&A}{0}}}
\@writefile{nav}{\headcommand {\beamer@framepages {19}{19}}}
\HyField@AuxAddToFields{1661}
\HyField@AuxAddToFields{1663}
\HyField@AuxAddToFields{1665}
\HyField@AuxAddToFields{1676}
\HyField@AuxAddToFields{1678}
\HyField@AuxAddToFields{1680}
\HyField@AuxAddToFields{1682}
\HyField@AuxAddToFields{1684}
\HyField@AuxAddToFields{1686}
\HyField@AuxAddToFields{1687}
\HyField@AuxAddToFields{1698}
\HyField@AuxAddToFields{1700}
\HyField@AuxAddToFields{1702}
\HyField@AuxAddToFields{1704}
\HyField@AuxAddToFields{1706}
\HyField@AuxAddToFields{1708}
\@writefile{nav}{\headcommand {\beamer@partpages {1}{19}}}
\@writefile{nav}{\headcommand {\beamer@subsectionpages {19}{19}}}
\@writefile{nav}{\headcommand {\beamer@sectionpages {17}{19}}}
\@writefile{nav}{\headcommand {\beamer@documentpages {19}}}
\@writefile{nav}{\headcommand {\def \inserttotalframenumber {12}}}
